{
    "result": "SUCCESS",
    "data": {
        "currentPage": 1,
        "nextPage": 2,
        "pageSize": 5,
        "totalPage": 27,
        "totalSize": 131,
        "list": [{
            "col1": "201706030308",
            "col2": "库文秋",
            "col3": "武昌区",
            "col4": "太保",
            "col5": "查看详细地址",
            "col5_tips": "湖北省武汉市武昌区铁机路248号",
            "col6": "2017-06-03 20:51:41    ",
            "col7": "2016/11/08 16:43:00",
            "col8": "2017-06-03 20:51:41",
            "col9": "2017-06-03 20:51:41",
            "col10": "2017-06-03 20:51:41",
            "col11": "有效",
            "col12": "鄂AT92J4",
            "col13": "15107188151",
            "col14": "全责",
            "col15": "查看详情",
            "col15_tips": "湖北省武汉市武昌区铁机路248号湖北省武汉市武昌区铁机路248号湖北省武汉市武昌区铁机路248号湖北省武汉市武昌区铁机路248号湖北省武汉市武昌区铁机路248号湖北省武汉市武昌区铁机路248号",
            "col16": "双方事故",
            "col17": "富德",
            "col18": "平安",
            "col19": "鄂ARJ589",
            "col20": "何正生",
            "col21": "鄂ARJ589",
            "col22": "13971036236",
            "col23": "无责",
            "col24": "右前,左后",
            "col25": "",
            "col26": "无"
        }]
    }
}